IntegraBV2_XC95144XL-100/dump.vcd
$date
	Fri May 22 22:45:05 2020
$end
$version
	Icarus Verilog
$end
$timescale
	1ps
$end
$scope module IntergraBV2_tb $end
$var wire 1 ! Phi1 $end
$var wire 1 " dPhi2 $end
$var wire 1 # o_nRTC_AS $end
$var wire 1 $ o_nRTC_DS $end
$var wire 1 % o_rD1 $end
$var wire 1 & o_rD0 $end
$var wire 1 ' o_nWDS $end
$var wire 1 ( o_nRomBankSel0_3 $end
$var wire 8 ) o_nRomBankSel [15:8] $end
$var wire 1 * o_nRDS $end
$var wire 1 + o_nDE $end
$var wire 1 , o_RnWOut $end
$var wire 5 - o_Ram_ADDRESS [18:14] $end
$var wire 1 . o_RAM_CE $end
$var wire 1 / o_Phi1Out $end
$var wire 1 0 o_IntegraRnW $end
$var reg 16 1 ADDRESS [15:0] $end
$var reg 4 2 BeebRomSel [3:0] $end
$var reg 8 3 DATA [7:0] $end
$var reg 8 4 IntegraRomSel [15:8] $end
$var reg 16 5 RamWriteProt [15:0] $end
$var reg 1 6 RnW $end
$var reg 1 7 clk $end
$var reg 1 8 nRST $end
$scope module dut $end
$var wire 4 9 BeebRomSel [3:0] $end
$var wire 1 : FE30_3 $end
$var wire 1 ; FE34_7 $end
$var wire 1 0 IntegraRnW $end
$var wire 8 < IntegraRomSel [15:8] $end
$var wire 1 = Phi1 $end
$var wire 1 . RAM_CE $end
$var wire 1 > RTC_AS $end
$var wire 1 ? RTC_DS $end
$var wire 16 @ RamWriteProt [15:0] $end
$var wire 1 A RnW $end
$var wire 16 B bbc_ADDRESS [15:0] $end
$var wire 8 C bbc_DATA [7:0] $end
$var wire 1 8 bbc_nRST $end
$var wire 1 D dPhi2 $end
$var wire 1 ! from_CPU_Phi1 $end
$var wire 1 6 from_CPU_RnW $end
$var wire 1 " from_CPU_dPhi2 $end
$var wire 1 + nDE $end
$var wire 1 E nPrvAct $end
$var wire 1 F nROMDec $end
$var wire 1 # nRTC_AS $end
$var wire 1 $ nRTC_DS $end
$var wire 1 ( nRomBankSel0_3 $end
$var wire 1 & to_bbc_rD0 $end
$var wire 1 % to_bbc_rD1 $end
$var wire 1 , to_bbc_RnW $end
$var wire 1 / to_bbc_Phi1 $end
$var wire 1 ' nWDS $end
$var wire 1 G nShAct $end
$var wire 1 H nSWRAddr $end
$var wire 8 I nRomBankSel [15:8] $end
$var wire 1 * nRDS $end
$var wire 1 J nFE34_7 $end
$var wire 1 K nFE30_3 $end
$var wire 1 L ShadowSel $end
$var wire 5 M Ram_ADDRESS [18:14] $end
$var wire 1 N FE3x $end
$var reg 1 O MemSel $end
$var reg 1 P PrvEn $end
$var reg 1 Q PrvS1 $end
$var reg 1 R PrvS4 $end
$var reg 1 S PrvS8 $end
$var reg 1 T ShEn $end
$var reg 1 U rD0 $end
$var reg 1 V rD1 $end
$var reg 1 W rD2 $end
$var reg 1 X rD3 $end
$upscope $end
$scope task bus_read $end
$var reg 16 Y a [15:0] $end
$upscope $end
$scope task bus_write $end
$var reg 16 Z a [15:0] $end
$var reg 8 [ d [7:0] $end
$upscope $end
$scope task test_memory $end
$upscope $end
$upscope $end
$enddefinitions $end
#0
$dumpvars
bx [
bx Z
bx Y
xX
xW
xV
xU
xT
xS
xR
xQ
xP
xO
0N
b0xxxx M
0L
1K
1J
bz I
1H
1G
0F
1E
1D
bz C
b0 B
1A
b0 @
0?
0>
0=
b11111111 <
0;
0:
b0 9
18
07
16
b0 5
b11111111 4
bz 3
b0 2
b0 1
10
0/
1.
b0xxxx -
1,
1+
0*
bz )
1(
1'
x&
x%
z$
z#
1"
0!
$end
#250000
b0 -
b0 M
0T
0S
0R
0Q
0O
0P
0X
0W
0%
0V
0&
0U
08
1/
1*
0D
0"
1=
1!
17
#500000
0/
0*
1D
1"
0=
0!
07
#750000
b0 [
b1111111000110000 Z
18
1/
1*
0D
0"
1=
1!
17
#1000000
0/
0*
1D
1"
0=
0!
07
#1250000
1/
1*
0D
0"
1=
1!
17
#1300000
0+
1:
0,
1N
00
0A
06
b1111111000110000 1
b1111111000110000 B
#1500000
0K
b0 3
b0 C
0/
1D
1"
0=
0!
07
#1750000
1K
1/
0D
0"
1=
1!
17
#1800000
1+
0:
1,
0N
b1111111000110100 Z
10
1A
16
b0 1
b0 B
bz 3
bz C
#2000000
0/
0*
1D
1"
0=
0!
07
#2250000
1/
1*
0D
0"
1=
1!
17
#2300000
0+
1;
0,
1N
00
0A
06
b1111111000110100 1
b1111111000110100 B
#2500000
0J
b0 3
b0 C
0/
1D
1"
0=
0!
07
#2750000
1J
1/
0D
0"
1=
1!
17
#2800000
1+
0;
1,
0N
b0 Z
10
1A
16
b0 1
b0 B
bz 3
bz C
#3000000
0/
0*
1D
1"
0=
0!
07
#3250000
1/
1*
0D
0"
1=
1!
17
#3300000
0,
00
0A
06
#3500000
b0 3
b0 C
0/
1D
1"
0=
0!
07
#3750000
1/
0D
0"
1=
1!
17
#3800000
1,
b10001 [
b1000000000000 Z
10
1A
16
bz 3
bz C
#4000000
0/
0*
1D
1"
0=
0!
07
#4250000
1/
1*
0D
0"
1=
1!
17
#4300000
0,
00
0A
06
b1000000000000 1
b1000000000000 B
#4500000
b10001 3
b10001 C
0/
1D
1"
0=
0!
07
#4750000
1/
0D
0"
1=
1!
17
#4800000
1,
b100010 [
b10000000000000 Z
10
1A
16
b0 1
b0 B
bz 3
bz C
#5000000
0/
0*
1D
1"
0=
0!
07
#5250000
1/
1*
0D
0"
1=
1!
17
#5300000
0,
00
0A
06
b10000000000000 1
b10000000000000 B
#5500000
b100010 3
b100010 C
0/
1D
1"
0=
0!
07
#5750000
1/
0D
0"
1=
1!
17
#5800000
1,
b110011 [
b11000000000000 Z
10
1A
16
b0 1
b0 B
bz 3
bz C
#6000000
0/
0*
1D
1"
0=
0!
07
#6250000
1/
1*
0D
0"
1=
1!
17
#6300000
0,
00
0A
06
b11000000000000 1
b11000000000000 B
#6500000
b110011 3
b110011 C
0/
1D
1"
0=
0!
07
#6750000
1/
0D
0"
1=
1!
17
#6800000
1,
b1000100 [
b100000000000000 Z
10
1A
16
b0 1
b0 B
bz 3
bz C
#7000000
0/
0*
1D
1"
0=
0!
07
#7250000
1/
1*
0D
0"
1=
1!
17
#7300000
0,
00
0A
06
b100000000000000 1
b100000000000000 B
#7500000
b1000100 3
b1000100 C
0/
1D
1"
0=
0!
07
#7750000
1/
0D
0"
1=
1!
17
#7800000
1,
b1010101 [
b101000000000000 Z
10
1A
16
b0 1
b0 B
bz 3
bz C
#8000000
0/
0*
1D
1"
0=
0!
07
#8250000
1/
1*
0D
0"
1=
1!
17
#8300000
0,
00
0A
06
b101000000000000 1
b101000000000000 B
#8500000
b1010101 3
b1010101 C
0/
1D
1"
0=
0!
07
#8750000
1/
0D
0"
1=
1!
17
#8800000
1,
b1100110 [
b110000000000000 Z
10
1A
16
b0 1
b0 B
bz 3
bz C
#9000000
0/
0*
1D
1"
0=
0!
07
#9250000
1/
1*
0D
0"
1=
1!
17
#9300000
0,
00
0A
06
b110000000000000 1
b110000000000000 B
#9500000
b1100110 3
b1100110 C
0/
1D
1"
0=
0!
07
#9750000
1/
0D
0"
1=
1!
17
#9800000
1,
b1110111 [
b111000000000000 Z
10
1A
16
b0 1
b0 B
bz 3
bz C
#10000000
0/
0*
1D
1"
0=
0!
07
#10250000
1/
1*
0D
0"
1=
1!
17
#10300000
0,
00
0A
06
b111000000000000 1
b111000000000000 B
#10500000
b1110111 3
b1110111 C
0/
1D
1"
0=
0!
07
#10750000
1/
0D
0"
1=
1!
17
#10800000
1,
b0 Y
10
1A
16
b0 1
b0 B
bz 3
bz C
#11000000
0/
0*
1D
1"
0=
0!
07
#11250000
1/
1*
0D
0"
1=
1!
17
#11500000
0/
0*
1D
1"
0=
0!
07
#11750000
1/
1*
0D
0"
1=
1!
17
#11800000
b1000000000000 Y
#12000000
0/
0*
1D
1"
0=
0!
07
#12250000
1/
1*
0D
0"
1=
1!
17
#12300000
b1000000000000 1
b1000000000000 B
#12500000
0/
0*
1D
1"
0=
0!
07
#12750000
1/
1*
0D
0"
1=
1!
17
#12800000
b10000000000000 Y
b0 1
b0 B
#13000000
0/
0*
1D
1"
0=
0!
07
#13250000
1/
1*
0D
0"
1=
1!
17
#13300000
b10000000000000 1
b10000000000000 B
#13500000
0/
0*
1D
1"
0=
0!
07
#13750000
1/
1*
0D
0"
1=
1!
17
#13800000
b11000000000000 Y
b0 1
b0 B
#14000000
0/
0*
1D
1"
0=
0!
07
#14250000
1/
1*
0D
0"
1=
1!
17
#14300000
b11000000000000 1
b11000000000000 B
#14500000
0/
0*
1D
1"
0=
0!
07
#14750000
1/
1*
0D
0"
1=
1!
17
#14800000
b100000000000000 Y
b0 1
b0 B
#15000000
0/
0*
1D
1"
0=
0!
07
#15250000
1/
1*
0D
0"
1=
1!
17
#15300000
b100000000000000 1
b100000000000000 B
#15500000
0/
0*
1D
1"
0=
0!
07
#15750000
1/
1*
0D
0"
1=
1!
17
#15800000
b101000000000000 Y
b0 1
b0 B
#16000000
0/
0*
1D
1"
0=
0!
07
#16250000
1/
1*
0D
0"
1=
1!
17
#16300000
b101000000000000 1
b101000000000000 B
#16500000
0/
0*
1D
1"
0=
0!
07
#16750000
1/
1*
0D
0"
1=
1!
17
#16800000
b110000000000000 Y
b0 1
b0 B
#17000000
0/
0*
1D
1"
0=
0!
07
#17250000
1/
1*
0D
0"
1=
1!
17
#17300000
b110000000000000 1
b110000000000000 B
#17500000
0/
0*
1D
1"
0=
0!
07
#17750000
1/
1*
0D
0"
1=
1!
17
#17800000
b111000000000000 Y
b0 1
b0 B
#18000000
0/
0*
1D
1"
0=
0!
07
#18250000
1/
1*
0D
0"
1=
1!
17
#18300000
b111000000000000 1
b111000000000000 B
#18500000
0/
0*
1D
1"
0=
0!
07
#18750000
1/
1*
0D
0"
1=
1!
17
#18800000
b0 [
b1111111000110000 Z
b0 1
b0 B
#19000000
0/
0*
1D
1"
0=
0!
07
#19250000
1/
1*
0D
0"
1=
1!
17
#19300000
0+
1:
0,
1N
00
0A
06
b1111111000110000 1
b1111111000110000 B
#19500000
0K
b0 3
b0 C
0/
1D
1"
0=
0!
07
#19750000
1K
1/
0D
0"
1=
1!
17
#19800000
1+
0:
1,
0N
b10000000 [
b1111111000110100 Z
10
1A
16
b0 1
b0 B
bz 3
bz C
#20000000
0/
0*
1D
1"
0=
0!
07
#20250000
1/
1*
0D
0"
1=
1!
17
#20300000
0+
1;
0,
1N
00
0A
06
b1111111000110100 1
b1111111000110100 B
#20500000
0J
b10000000 3
b10000000 C
0/
1D
1"
0=
0!
07
#20750000
1T
1J
1/
0D
0"
1=
1!
17
#20800000
1+
0;
1,
0N
b0 [
b0 Z
10
1A
16
b0 1
b0 B
bz 3
bz C
#21000000
0/
0*
1D
1"
0=
0!
07
#21250000
1/
1*
0D
0"
1=
1!
17
#21300000
0,
00
0A
06
#21500000
b0 3
b0 C
0/
1D
1"
0=
0!
07
#21750000
1/
0D
0"
1=
1!
17
#21800000
1,
b10001 [
b1000000000000 Z
10
1A
16
bz 3
bz C
#22000000
0/
0*
1D
1"
0=
0!
07
#22250000
1/
1*
0D
0"
1=
1!
17
#22300000
0,
00
0A
06
b1000000000000 1
b1000000000000 B
#22500000
b10001 3
b10001 C
0/
1D
1"
0=
0!
07
#22750000
1/
0D
0"
1=
1!
17
#22800000
1,
b100010 [
b10000000000000 Z
10
1A
16
b0 1
b0 B
bz 3
bz C
#23000000
0/
0*
1D
1"
0=
0!
07
#23250000
1/
1*
0D
0"
1=
1!
17
#23300000
0,
00
0A
06
b10000000000000 1
b10000000000000 B
#23500000
b100010 3
b100010 C
0/
1D
1"
0=
0!
07
#23750000
1/
0D
0"
1=
1!
17
#23800000
1,
b110011 [
b11000000000000 Z
10
1A
16
b0 1
b0 B
bz 3
bz C
#24000000
0/
0*
1D
1"
0=
0!
07
#24250000
1/
1*
0D
0"
1=
1!
17
#24300000
0+
0.
b10000 -
b10000 M
1L
0G
1,
00
0A
06
b11000000000000 1
b11000000000000 B
#24500000
b110011 3
b110011 C
1D
1"
0=
0!
07
#24750000
0D
0"
1=
1!
17
#24800000
1+
1.
b0 -
b0 M
0L
1G
b1000100 [
b100000000000000 Z
10
1A
16
b0 1
b0 B
bz 3
bz C
#25000000
0/
0*
1D
1"
0=
0!
07
#25250000
1/
1*
0D
0"
1=
1!
17
#25300000
0+
0.
b10001 -
b10001 M
1L
0G
1,
00
0A
06
b100000000000000 1
b100000000000000 B
#25500000
b1000100 3
b1000100 C
1D
1"
0=
0!
07
#25750000
0D
0"
1=
1!
17
#25800000
1+
1.
0L
1G
b0 -
b0 M
b1010101 [
b101000000000000 Z
10
1A
16
b0 1
b0 B
bz 3
bz C
#26000000
0/
0*
1D
1"
0=
0!
07
#26250000
1/
1*
0D
0"
1=
1!
17
#26300000
0+
0.
b10001 -
b10001 M
1L
0G
1,
00
0A
06
b101000000000000 1
b101000000000000 B
#26500000
b1010101 3
b1010101 C
1D
1"
0=
0!
07
#26750000
0D
0"
1=
1!
17
#26800000
1+
1.
0L
1G
b0 -
b0 M
b1100110 [
b110000000000000 Z
10
1A
16
b0 1
b0 B
bz 3
bz C
#27000000
0/
0*
1D
1"
0=
0!
07
#27250000
1/
1*
0D
0"
1=
1!
17
#27300000
0+
0.
b10001 -
b10001 M
1L
0G
1,
00
0A
06
b110000000000000 1
b110000000000000 B
#27500000
b1100110 3
b1100110 C
1D
1"
0=
0!
07
#27750000
0D
0"
1=
1!
17
#27800000
1+
1.
0L
1G
b0 -
b0 M
b1110111 [
b111000000000000 Z
10
1A
16
b0 1
b0 B
bz 3
bz C
#28000000
0/
0*
1D
1"
0=
0!
07
#28250000
1/
1*
0D
0"
1=
1!
17
#28300000
0+
0.
b10001 -
b10001 M
1L
0G
1,
00
0A
06
b111000000000000 1
b111000000000000 B
#28500000
b1110111 3
b1110111 C
1D
1"
0=
0!
07
#28750000
0D
0"
1=
1!
17
#28800000
1+
1.
0L
1G
b0 -
b0 M
b0 Y
10
1A
16
b0 1
b0 B
bz 3
bz C
#29000000
0/
0*
1D
1"
0=
0!
07
#29250000
1/
1*
0D
0"
1=
1!
17
#29500000
0/
0*
1D
1"
0=
0!
07
#29750000
1/
1*
0D
0"
1=
1!
17
#29800000
b1000000000000 Y
#30000000
0/
0*
1D
1"
0=
0!
07
#30250000
1/
1*
0D
0"
1=
1!
17
#30300000
b1000000000000 1
b1000000000000 B
#30500000
0/
0*
1D
1"
0=
0!
07
#30750000
1/
1*
0D
0"
1=
1!
17
#30800000
b10000000000000 Y
b0 1
b0 B
#31000000
0/
0*
1D
1"
0=
0!
07
#31250000
1/
1*
0D
0"
1=
1!
17
#31300000
b10000000000000 1
b10000000000000 B
#31500000
0/
0*
1D
1"
0=
0!
07
#31750000
1/
1*
0D
0"
1=
1!
17
#31800000
b11000000000000 Y
b0 1
b0 B
#32000000
0/
0*
1D
1"
0=
0!
07
#32250000
1/
1*
0D
0"
1=
1!
17
#32300000
0+
0.
b10000 -
b10000 M
1L
0G
b11000000000000 1
b11000000000000 B
#32500000
0*
1D
1"
0=
0!
07
#32750000
1*
0D
0"
1=
1!
17
#32800000
1+
1.
b0 -
b0 M
0L
1G
b100000000000000 Y
b0 1
b0 B
#33000000
0/
0*
1D
1"
0=
0!
07
#33250000
1/
1*
0D
0"
1=
1!
17
#33300000
0+
0.
b10001 -
b10001 M
1L
0G
b100000000000000 1
b100000000000000 B
#33500000
0*
1D
1"
0=
0!
07
#33750000
1*
0D
0"
1=
1!
17
#33800000
1+
1.
0L
1G
b0 -
b0 M
b101000000000000 Y
b0 1
b0 B
#34000000
0/
0*
1D
1"
0=
0!
07
#34250000
1/
1*
0D
0"
1=
1!
17
#34300000
0+
0.
b10001 -
b10001 M
1L
0G
b101000000000000 1
b101000000000000 B
#34500000
0*
1D
1"
0=
0!
07
#34750000
1*
0D
0"
1=
1!
17
#34800000
1+
1.
0L
1G
b0 -
b0 M
b110000000000000 Y
b0 1
b0 B
#35000000
0/
0*
1D
1"
0=
0!
07
#35250000
1/
1*
0D
0"
1=
1!
17
#35300000
0+
0.
b10001 -
b10001 M
1L
0G
b110000000000000 1
b110000000000000 B
#35500000
0*
1D
1"
0=
0!
07
#35750000
1*
0D
0"
1=
1!
17
#35800000
1+
1.
0L
1G
b0 -
b0 M
b111000000000000 Y
b0 1
b0 B
#36000000
0/
0*
1D
1"
0=
0!
07
#36250000
1/
1*
0D
0"
1=
1!
17
#36300000
0+
0.
b10001 -
b10001 M
1L
0G
b111000000000000 1
b111000000000000 B
#36500000
0*
1D
1"
0=
0!
07
#36750000
1*
0D
0"
1=
1!
17
#36800000
1+
1.
0L
1G
b0 -
b0 M
b0 [
b1111111000110000 Z
b0 1
b0 B
#37000000
0/
0*
1D
1"
0=
0!
07
#37250000
1/
1*
0D
0"
1=
1!
17
#37300000
0+
1:
0,
1N
00
0A
06
b1111111000110000 1
b1111111000110000 B
#37500000
0K
b0 3
b0 C
0/
1D
1"
0=
0!
07
#37750000
1K
1/
0D
0"
1=
1!
17
#37800000
1+
0:
1,
0N
b1111111000110100 Z
10
1A
16
b0 1
b0 B
bz 3
bz C
#38000000
0/
0*
1D
1"
0=
0!
07
#38250000
1/
1*
0D
0"
1=
1!
17
#38300000
0+
1;
0,
1N
00
0A
06
b1111111000110100 1
b1111111000110100 B
#38500000
0J
b0 3
b0 C
0/
1D
1"
0=
0!
07
#38750000
0T
1J
1/
0D
0"
1=
1!
17
#38800000
1+
0;
1,
0N
b0 Z
10
1A
16
b0 1
b0 B
bz 3
bz C
#39000000
0/
0*
1D
1"
0=
0!
07
#39250000
1/
1*
0D
0"
1=
1!
17
#39300000
0,
00
0A
06
#39500000
b0 3
b0 C
0/
1D
1"
0=
0!
07
#39750000
1/
0D
0"
1=
1!
17
#39800000
1,
b10001 [
b1000000000000 Z
10
1A
16
bz 3
bz C
#40000000
0/
0*
1D
1"
0=
0!
07
#40250000
1/
1*
0D
0"
1=
1!
17
#40300000
0,
00
0A
06
b1000000000000 1
b1000000000000 B
#40500000
b10001 3
b10001 C
0/
1D
1"
0=
0!
07
#40750000
1/
0D
0"
1=
1!
17
#40800000
1,
b100010 [
b10000000000000 Z
10
1A
16
b0 1
b0 B
bz 3
bz C
#41000000
0/
0*
1D
1"
0=
0!
07
#41250000
1/
1*
0D
0"
1=
1!
17
#41300000
0,
00
0A
06
b10000000000000 1
b10000000000000 B
#41500000
b100010 3
b100010 C
0/
1D
1"
0=
0!
07
#41750000
1/
0D
0"
1=
1!
17
#41800000
1,
b110011 [
b11000000000000 Z
10
1A
16
b0 1
b0 B
bz 3
bz C
#42000000
0/
0*
1D
1"
0=
0!
07
#42250000
1/
1*
0D
0"
1=
1!
17
#42300000
0,
00
0A
06
b11000000000000 1
b11000000000000 B
#42500000
b110011 3
b110011 C
0/
1D
1"
0=
0!
07
#42750000
1/
0D
0"
1=
1!
17
#42800000
1,
b1000100 [
b100000000000000 Z
10
1A
16
b0 1
b0 B
bz 3
bz C
#43000000
0/
0*
1D
1"
0=
0!
07
#43250000
1/
1*
0D
0"
1=
1!
17
#43300000
0,
00
0A
06
b100000000000000 1
b100000000000000 B
#43500000
b1000100 3
b1000100 C
0/
1D
1"
0=
0!
07
#43750000
1/
0D
0"
1=
1!
17
#43800000
1,
b1010101 [
b101000000000000 Z
10
1A
16
b0 1
b0 B
bz 3
bz C
#44000000
0/
0*
1D
1"
0=
0!
07
#44250000
1/
1*
0D
0"
1=
1!
17
#44300000
0,
00
0A
06
b101000000000000 1
b101000000000000 B
#44500000
b1010101 3
b1010101 C
0/
1D
1"
0=
0!
07
#44750000
1/
0D
0"
1=
1!
17
#44800000
1,
b1100110 [
b110000000000000 Z
10
1A
16
b0 1
b0 B
bz 3
bz C
#45000000
0/
0*
1D
1"
0=
0!
07
#45250000
1/
1*
0D
0"
1=
1!
17
#45300000
0,
00
0A
06
b110000000000000 1
b110000000000000 B
#45500000
b1100110 3
b1100110 C
0/
1D
1"
0=
0!
07
#45750000
1/
0D
0"
1=
1!
17
#45800000
1,
b1110111 [
b111000000000000 Z
10
1A
16
b0 1
b0 B
bz 3
bz C
#46000000
0/
0*
1D
1"
0=
0!
07
#46250000
1/
1*
0D
0"
1=
1!
17
#46300000
0,
00
0A
06
b111000000000000 1
b111000000000000 B
#46500000
b1110111 3
b1110111 C
0/
1D
1"
0=
0!
07
#46750000
1/
0D
0"
1=
1!
17
#46800000
1,
b0 Y
10
1A
16
b0 1
b0 B
bz 3
bz C
#47000000
0/
0*
1D
1"
0=
0!
07
#47250000
1/
1*
0D
0"
1=
1!
17
#47500000
0/
0*
1D
1"
0=
0!
07
#47750000
1/
1*
0D
0"
1=
1!
17
#47800000
b1000000000000 Y
#48000000
0/
0*
1D
1"
0=
0!
07
#48250000
1/
1*
0D
0"
1=
1!
17
#48300000
b1000000000000 1
b1000000000000 B
#48500000
0/
0*
1D
1"
0=
0!
07
#48750000
1/
1*
0D
0"
1=
1!
17
#48800000
b10000000000000 Y
b0 1
b0 B
#49000000
0/
0*
1D
1"
0=
0!
07
#49250000
1/
1*
0D
0"
1=
1!
17
#49300000
b10000000000000 1
b10000000000000 B
#49500000
0/
0*
1D
1"
0=
0!
07
#49750000
1/
1*
0D
0"
1=
1!
17
#49800000
b11000000000000 Y
b0 1
b0 B
#50000000
0/
0*
1D
1"
0=
0!
07
#50250000
1/
1*
0D
0"
1=
1!
17
#50300000
b11000000000000 1
b11000000000000 B
#50500000
0/
0*
1D
1"
0=
0!
07
#50750000
1/
1*
0D
0"
1=
1!
17
#50800000
b100000000000000 Y
b0 1
b0 B
#51000000
0/
0*
1D
1"
0=
0!
07
#51250000
1/
1*
0D
0"
1=
1!
17
#51300000
b100000000000000 1
b100000000000000 B
#51500000
0/
0*
1D
1"
0=
0!
07
#51750000
1/
1*
0D
0"
1=
1!
17
#51800000
b101000000000000 Y
b0 1
b0 B
#52000000
0/
0*
1D
1"
0=
0!
07
#52250000
1/
1*
0D
0"
1=
1!
17
#52300000
b101000000000000 1
b101000000000000 B
#52500000
0/
0*
1D
1"
0=
0!
07
#52750000
1/
1*
0D
0"
1=
1!
17
#52800000
b110000000000000 Y
b0 1
b0 B
#53000000
0/
0*
1D
1"
0=
0!
07
#53250000
1/
1*
0D
0"
1=
1!
17
#53300000
b110000000000000 1
b110000000000000 B
#53500000
0/
0*
1D
1"
0=
0!
07
#53750000
1/
1*
0D
0"
1=
1!
17
#53800000
b111000000000000 Y
b0 1
b0 B
#54000000
0/
0*
1D
1"
0=
0!
07
#54250000
1/
1*
0D
0"
1=
1!
17
#54300000
b111000000000000 1
b111000000000000 B
#54500000
0/
0*
1D
1"
0=
0!
07
#54750000
1/
1*
0D
0"
1=
1!
17
#54800000
b0 1
b0 B
#55000000
0/
0*
1D
1"
0=
0!
07
#55250000
1/
1*
0D
0"
1=
1!
17
#55500000
0/
0*
1D
1"
0=
0!
07
#55750000
1/
1*
0D
0"
1=
1!
17
#56000000
0/
0*
1D
1"
0=
0!
07
#56250000
1/
1*
0D
0"
1=
1!
17
#56500000
0/
0*
1D
1"
0=
0!
07
#56750000
1/
1*
0D
0"
1=
1!
17
#57000000
0/
0*
1D
1"
0=
0!
07
#57250000
1/
1*
0D
0"
1=
1!
17
#57500000
0/
0*
1D
1"
0=
0!
07
#57750000
1/
1*
0D
0"
1=
1!
17
#58000000
0/
0*
1D
1"
0=
0!
07
#58250000
1/
1*
0D
0"
1=
1!
17
#58500000
0/
0*
1D
1"
0=
0!
07
#58750000
1/
1*
0D
0"
1=
1!
17
#59000000
0/
0*
1D
1"
0=
0!
07
#59250000
1/
1*
0D
0"
1=
1!
17
#59500000
0/
0*
1D
1"
0=
0!
07
#59750000
1/
1*
0D
0"
1=
1!
17
#60000000
0/
0*
1D
1"
0=
0!
07
#60250000
1/
1*
0D
0"
1=
1!
17
#60500000
0/
0*
1D
1"
0=
0!
07
#60750000
1/
1*
0D
0"
1=
1!
17
#61000000
0/
0*
1D
1"
0=
0!
07
#61250000
1/
1*
0D
0"
1=
1!
17
#61500000
0/
0*
1D
1"
0=
0!
07
#61750000
1/
1*
0D
0"
1=
1!
17
#62000000
0/
0*
1D
1"
0=
0!
07
#62250000
1/
1*
0D
0"
1=
1!
17
#62500000
0/
0*
1D
1"
0=
0!
07
#62750000
1/
1*
0D
0"
1=
1!
17
#63000000
0/
0*
1D
1"
0=
0!
07
#63250000
1/
1*
0D
0"
1=
1!
17
#63500000
0/
0*
1D
1"
0=
0!
07
#63750000
1/
1*
0D
0"
1=
1!
17
#64000000
0/
0*
1D
1"
0=
0!
07
#64250000
1/
1*
0D
0"
1=
1!
17
#64500000
0/
0*
1D
1"
0=
0!
07
#64750000
1/
1*
0D
0"
1=
1!
17
